/home/rinor/ChatAppSpring/src/test/java/services/MessageServiceTest.java
/home/rinor/ChatAppSpring/src/test/java/services/UserServiceTest.java
/home/rinor/ChatAppSpring/src/test/java/services/RoomServiceTest.java
